112,3212116,7.054977625855001,7309.92,7309.92,0.00476,0.1904,5.0,2.143,74.851,68.949,183.36,22130.0,0.057,0.272,3.529,114.25,61.029,138.3,0.219,1.343,3.663,1.221,4.882,2.726,0.122,10.0,122.06,12.206,332.75,122.06,5.872888888888889,6.761555555555555,1.208,1.221,0.958,0.925,20.0,0.7567,0.61,0.543,51.558,2.0945,9.28,3480.27,0.972,1713.71,8675.14,5.235,3.143,1311.6399999999999,13.574444444444444,1.445,2.285,60.0,180.0,28.211,194.07,114.25,4.287,89.943,447.47,132240.2,172.45,0.199,16.0,1.0,0.005593,322.18,644.35,0.447,3.222,32.218,8.949e-05,32.218,0.0895,32.218,3.222,0.09695000000000001
113,3283160,4.813977243995001,7309.92,7309.92,0.00476,0.1904,5.0,2.143,74.851,68.949,183.36,22130.0,0.057,0.272,3.529,114.25,61.029,138.3,0.219,1.343,3.663,2.3209999999999997,4.882,2.726,0.122,10.0,122.06,17.650444444444446,440.5277777777777,122.06,5.872888888888889,6.761555555555555,1.208,1.221,0.958,0.925,52.666666666666664,0.7567,0.61,0.543,51.558,2.0945,9.28,3480.27,0.972,1713.71,8675.14,5.235,3.143,1861.6399999999999,17.796666666666667,1.445,2.285,60.0,180.0,28.211,194.07,114.25,4.287,35.498555555555555,147.47000000000003,26684.644444444464,63.5611111111111,0.19899999999999984,16.0,1.0,0.005593,322.18,644.35,0.447,16.422,142.21800000000002,8.949e-05,32.218,0.0895,32.218,3.222,0.09695000000000001
113,3309319,3.983980903883,7309.92,7309.92,0.00476,0.1904,5.0,2.143,74.851,68.949,183.36,22130.0,0.057,0.272,3.529,114.25,61.029,138.3,0.219,1.343,3.663,1.221,4.882,2.726,0.122,10.0,122.06,33.98377777777779,548.3055555555554,122.06,5.872888888888889,6.761555555555555,1.208,1.221,0.958,0.925,52.666666666666664,0.7567,0.61,0.543,51.558,2.0945,9.28,3480.27,0.972,1713.71,8675.14,5.235,3.143,1861.6399999999999,17.796666666666667,1.445,2.285,60.0,180.0,28.211,194.07,114.25,4.287,89.943,447.47,132240.2,172.45,0.199,16.0,1.0,0.005593,322.18,644.35,0.447,3.222,32.218,8.949e-05,32.218,0.0895,32.218,3.222,0.07495
